\relax 
\citation{s2s_survey}
\citation{truong15asj}
\citation{Nose:2007:SCT:1522543.1522545}
\citation{Lafferty:2001:CRF:645530.655813}
\citation{truong15asj}
\citation{truong15asj}
\citation{truong14cocosda}
\@writefile{toc}{\contentsline {section}{Introduction}{}}
\@writefile{toc}{\contentsline {section}{Word-level Emphasis Translation}{}}
\newlabel{sec:emph_trans}{{}{}}
\newlabel{fig:es2s}{{}{}}
\newlabel{eqn:crf}{{1}{}}
\@writefile{toc}{\contentsline {section}{Experiments}{}}
\@writefile{toc}{\contentsline {subsection}{Emphasis translation evaluation}{}}
\newlabel{exper:crf_eval}{{}{}}
\newlabel{tab:feature_eper}{{}{}}
\bibstyle{unsrt}
\bibdata{Bibliography}
\newlabel{fig:subject_eval}{{}{}}
\@writefile{toc}{\contentsline {section}{Conclusion}{}}
